…
       West Virginia            Wisconsin              Wyoming 
                 599                 1436                  545 
> summary(INCOME)
                      NA HH income less than $25k  HH income $25k - $34.9k    HH income $35k - 49.9    HH income $50k - 74.9 
                   12256                     6782                     5156                     6192                     9461 
    HH income $75 - 99.9    HH income $100k - 149     HH income $150 - 199        HH income $200k + 
                    7844                    10444                     5537                     7480 
> Household_Pulse_data %>%
+   group_by(EST_ST) %>%
+   summarize(
+     avg = mean(2024 - TBIRTH_YEAR),
+     stdev = sd(2024 - TBIRTH_YEAR),
+     n_obs = n()
+   )
# A tibble: 51 × 4
   EST_ST                 avg stdev n_obs
   <fct>                <dbl> <dbl> <int>
 1 Alabama               55.1  16.1  1074
 2 Alaska                53.7  15.6   825
 3 Arizona               56.6  16.0  2018
 4 Arkansas              54.2  16.2   932
 5 California            53.9  15.8  5215
 6 Colorado              53.2  16.1  1860
 7 Connecticut           54.4  15.9  1237
 8 Delaware              57.2  15.8   693
 9 District of Columbia  45.3  14.3   757
10 Florida               57.2  16.1  2613
# ℹ 41 more rows
# ℹ Use `print(n = ...)` to see more rows
> Household_Pulse_data %>%
+   group_by(EST_ST) %>%
+   summarize(
+     age90th = quantile((2024 - TBIRTH_YEAR),probs = 0.9),
+     age10th = quantile((2024 - TBIRTH_YEAR),probs = 0.1),
+     n_obs = n()
+   ) %>%
+   arrange(desc(age90th), .by_group = TRUE)
# A tibble: 51 × 4
   EST_ST        age90th age10th n_obs
   <fct>           <dbl>   <dbl> <int>
 1 Arizona          77      34    2018
 2 Florida          77      34    2613
 3 Hawaii           77      37.3   764
 4 New Mexico       77      35    1340
 5 Delaware         76      35     693
 6 Idaho            76      34    1099
 7 Nevada           76      34    1001
 8 New Hampshire    76      35     981
 9 West Virginia    76      34     599
10 Arkansas         75.9    32     932
# ℹ 41 more rows
# ℹ Use `print(n = ...)` to see more rows
…
